,id,name,nation,req,imageid,terrain,cat,atk,def,upgrade,connected,hp,visible,buildtime,cost,cost,cost,cost,cost,cost,cost,produce,produce,produce,produce,produce,produce,produce,produce,produce,produce,req,req,onceproduce,onceproduce,onceproduce,onceproduce,research,research,research,research,research,research,research,research,research,action,action,action,action,req,req,req,passiveAction,passiveAction,passiveAction,passiveAction,passiveAction,passiveAction,remove,pass,pass
,id,name,,townlevel,imageid,terrain,cat,atk,def,upgrade,connected,hp,visible,buildtime,wood,stone,plank,brick,tool,gold,worker,wood,stone,plank,research,brick,tool,weapon,food,gold,ore,season,daytime,worker,faith,safety,culture,fire,water,air,earth,metal,wood,life,death,energy,shop,train,destroyTown,sendRess,scenconf,max,min,upgradeRangeLimit,upgradeBuildingLimit,storage,upgradeTownLimit,upgradeTownLevel,enablePlayerFeature,activeAction,walk,walk
building,nlogger2,Bigger logger,north,2,1494,forest,prod,,,,,20,,4,10,4,,,2,,2,6,,,,,,,,,,,,,,,,,,,,1,1,,,,,,,,,,,,,,,,,,,
building,nlogger,Logger,north,,1527,forest,prod,,,nlogger2,,5,,1,2,,,,,,1,2,,,,,,,,,,,,,,,,,,,,,,,,,,,,,,,,,,,,,,,,
building,nquarry2,Bigger quarry,north,3,162,hill-mountain,prod,,,,,30,0,6,9,6,2,,2,,2,,9,,,,,,,,,,,,,,,1,,,1,,,,,,,,,,,,,,,,,,,,,
building,nquarry,Quarry,north,,1495,hill-mountain,prod,,,nquarry2,,10,0,1,3,,,,1,,1,,3,,,,,,,,,,,,,,,,,,,,,,,,,,,,,,,,,,,,,,,
building,nhunter,Hunter,north,,1526,forest-grass,food,,,,,5,,2,4,1,,,1,,1,,,,,,,,3,,,,,,,,,,,,,,,,,,,,,,,,,,,,,,,,,
building,nfisher,Fisher,north,,1147,near-water,food,,,,,5,,3,2,2,,,1,,1,,,,,,,,4,,,,,,,,,,,,,,,,,,,,,,,,,,,,,,,,,
building,ntownhall4,Bigger town hall,north,3,294,,needs,,,,,100,5,9,,,8,15,,,,,,,,,,,,1,,,,,,,10,,,1,,,,1,,1,,nworker-nexplorer-nsettler,1,1,,,,5,70,300,2,1,,destroy,,
building,ntownhall3,Town hall,north,2,102,,needs,,,ntownhall4,,50,4,6,4,24,4,,,,,,,,,,,,,1,,,,,,,,,,,,,,1,,1,,nworker-nexplorer-nsettler,1,1,,,,5,45,200,1,1,,destroy,,
building,ntownhall2,Bigger village hall,north,,101,,needs,,,ntownhall3,,25,3,3,4,6,,,,,,,,,,,,,,1,,,,,,,,,,,,,,1,,,,nworker-nexplorer,1,,,,,5,25,200,,1,,destroy,,
building,ntownhall,Village hall,north,,288,,needs,,,ntownhall2,,10,2,0,,,,,,,,,,,,,,,,1,,,,,,,,,,,,,,,,,sell-tools,nworker-nexplorer,1,,,,,,10,300,,,,destroy,,
building,nsawmill,Sawmill,north,2,775,near-water,prod,,,,,20,,4,20,10,,,3,,1,-2,,1,,,,,,,,,true-true-false,,,,,,,,,1,1,,,1,,,,,,,,,,,,,,,,
building,nmarket,Market,north,2,964,nearTown,needs,,,,,20,,6,24,6,,,,3,1,,,,,,,,,1,,,,,,,10,,,1,,1,,1,,,1,,,1,,2-nmarket-false,,,,,,,,,,
building,nmine,Mine,north,2,889,mountain,prod,,,,,20,0,6,12,8,3,,,1,1,,,,,,,,,,1,,,,,,,,,,1,1,,,,,,,,,,,,,,,,,,,,
building,nworkshop,Workshop,north,2,1176,nearTown,prod,,,,,20,,4,8,20,4,,,,2,-1,,,,,1,,,,-1,,true-true-false,,,,,1,,1,,1,1,,,,,,,,,,,,,,,,,,,
building,nfarm2,Bigger farm,north,3,1761,grass,food,,,,,30,,6,12,9,5,,3,,2,,,,,,,,,,,,,,,,,,1,1,,,,1,,,,,,,,,,,,,,,,,,
building,nfarm,Farm,north,2,1697,grass,food,,,nfarm2,,20,,4,12,8,,,2,,1,,,,,,,,5,,,not-winter,,,,,,,1,,,,,1,,,,,,,,,,,,,,,,,,
building,nfield,Field,north,2,1664,grass,food,,,,,1,,1,,,1,,,,,,,,,,,,3,,,not-winter,,,,,,,1,,1,,,,,,,,,,,,1-nfarm2-false,,,,,,,,,
building,nwall,Town wall,north,3,1906,,war,,,,1,100,,3,,3,,3,,,,,,,,,,,,,,,,,,3,,,,,,1,,,1,1,,,,,,,,,1,,,,,,public#0,owner#0
building,ndockyard,Dockyard,north,3,932,near-water,explo,,,,,30,,6,,6,3,1,2,,2,,,,,,,,,,,,,,,10,10,,1,1,,,1,,,,1,,,1,,,,,,,,,,,,
building,nstreet2,Street,north,3,1910,nearTown,explo,,,,1,30,,6,,5,,1,,2,,,,,,,,,,,,,,,,,,,,1,,1,,1,,,,,,,,,,,1,,,,,,public#-2,owner#2
building,nstreet,Way,north,2,1654,nearTown,explo,,,nstreet2,1,20,,3,3,,,,,1,,,,,,,,,,,,,,,,,,,,,,1,,1,,,,,,,,,,,1,,,,,,public#-2,owner#-2
building,nbrickfactory,Brick factory,north,3,788,nearTown,prod,,,,,30,,6,,36,4,,3,,2,,-2,,,1,,,,,,,true-true-false,,,,,1,,,1,,1,,,,,,,,,,,,,,,,,,,
building,narmoury,Armoury,north,3,1210,nearTown,war,,,,,30,,6,,13,9,7,4,,3,-3,,,,,-1,1,,,-2,,true-true-false,,,,,1,,,1,1,,,1,1,,,,,,,,,,,,,,,,
building,nbarracks,Barracks,north,3,789,nearTown,war,,,,,60,,6,,7,5,9,3,,2,,,,,,,,,,,,,,,20,,1,,,,1,,,1,,,,,,,,,,,,,,,,,
building,ncastle,Castle,north,4,862,nearTown,war,5,1,,,100,,8,,14,5,12,6,,3,,,,,,,,,,,,,,,30,,1,,,,1,,,1,1,,,,,,0-ncastle-true,,5,5,,1,2,,,,
building,ngoldpalace,Gold palace,north,4,912,nearTown,deco,,,,,40,,8,,,10,10,10,10,3,,,,2,,,,,,,,,,10,,40,,,,,1,,1,1,1,,,,,,,,,,,,,,,,
building,nstorage,Storage,north,2,1762,nearTown,general,,,,,20,,4,24,10,,,,,1,,,,,,,,,,,,,,,,,,,1,,,1,,,,,,,,,,,,,300,,,,,,
building,nlibrary,Library,north,,999,nearTown,general,,,,,10,,3,1,4,,,,,1,,,,1,,,,,,,,,,,,,,,,,,,,,,,,,,RESEARCH,,,,,,,,RESEARCH,,,
building,nresearch,Research tower,north,3,1180,nearTown,general,,,,,30,,6,9,6,,6,,,2,,,,3,,,,,-1,,,,,,,,1,1,1,1,,,,,,,,,,RESEARCH,,,,,,,,RESEARCH,,,
building,nbridge,Bridge,north,3,851,,explo,,,,,30,,4,,6,1,4,2,,,,,,,,,,,,,,,,,,,,1,,1,,,,,,,,,,,,,,,,,,,,,
building,ntemple2,Bigger temple,north,4,545,nearTown,needs,,,,,40,,6,,,4,10,3,,2,,,,,,,,,,,,,,30,,10,,,,,,,1,1,1,,,,,,,,,,,,,,
building,ntemple,Temple,north,2,395,nearTown,needs,,,ntemple2,,20,,2,4,11,,,1,,1,,,,,,,,,,,,,,15,,5,1,1,,,,,,,,,,,,,,,,,,,,,
building,ncircus,Circus,north,4,548,nearTown,needs,,,,,40,,4,16,,8,2,4,,2,,,,,,,,-1,,,,,,,,25,,,,1,,1,1,,,,,,,,,,,,,,,,
building,nwoodtower,Wood tower,north,2,911,,explo,1,,,,20,5,2,12,,1,,,,,,,,,,,,,,,,,,,,,,,1,,,1,1,,,,,,,,,,,,,,,,
building,nhouse2,House,north,2,289,nearTown,needs,,,,,20,,6,4,15,3,,2,,,,,,,,,,,,,,,15,,,,,,,,,1,1,,,,,,,,,,,,,,,,
building,nhouse,Tent,north,,199,nearTown,needs,,,nhouse2,,2,,1,1,,,,,,,,,,,,,,,,,,,4,,,,,,,,,,,,,,,,,,5-nhouse-false,,,,,,,,