,id,name,nation,req,imageid,terrain,cat,atk,def,upgrade,hp,visible,buildtime,cost,cost,cost,cost,cost,cost,cost,cost,produce,produce,produce,produce,produce,produce,produce,produce,produce,req,req,onceproduce,onceproduce,onceproduce,onceproduce,onceproduce,onceproduce,onceproduce,research,research,research,research,research,research,research,research,research,action,action,action,action,action,req,req,req,passiveAction,passiveAction,passiveAction,passiveAction,passiveAction,passiveAction,remove
,id,name,,townlevel,imageid,terrain,cat,atk,def,upgrade,hp,visible,buildtime,wood,food,leaf,slingshot,plank,rope,gold,worker,wood,leaf,plank,research,rope,slingshot,food,gold,ore,season,daytime,worker,food,wood,leaf,faith,safety,culture,fire,water,air,earth,metal,wood,life,death,energy,shop,alchemyP,destroyTown,train,sendRess,scenconf,max,min,upgradeRangeLimit,upgradeBuildingLimit,storage,upgradeTownLimit,upgradeTownLevel,enablePlayerFeature,activeAction
building,rrope,Rope Factory,ranger,2,819,nearTown,prod,,,,,,4,4,,4,,,,,2,,-4,,,1,,,,,,,,,,,,,,,,,,,1,,,,,,,,,,,,,,,,,,
building,rleaf,Leaf collector,ranger,,194,forest,prod,,,,,,1,3,8,,,,,,1,,3,,,,,,,,not-winter,,,,,,,,,,,,,,,,,,,,,,,,,,,,,,,,
building,rsling,Slingshot workshop,ranger,3,1114,nearTown,prod,,,,,,8,5,,6,,4,4,,2,,,-1,,-2,1,,,,,,,,,,,,,,,1,,,1,,1,,,,,,,,,,,,,,,,
building,rplank,Plank creater,ranger,2,743,nearTown,prod,,,,,,5,11,,7,,,2,,1,-2,,1,,,,,,,,,,,,,,,,,,,,,1,,,1,,,,,,,,,,,,,,,
building,rwood,Wood collector,ranger,,1838,forest,prod,,,,,,2,,4,,,,,,1,3,,,,,,,,,not-spring,,,,,,,,,,,,,,,,,,,,,,,,,,,,,,,,
building,rberry,Berry finder,ranger,,132,grass,food,,,,,,1,4,,3,,,,,1,,,,,,,2,,,not-winter,,,,,,,,,,,,,,,,,,,,,,,,,,,,,,,,
building,rwapple,Winter apple,ranger,2,958,grass,food,,,,,,2,1,,4,,,1,,,,,,,,,6,,,winter,,,,,,,,,,,,,,1,1,,,,,,,,,,,,,,,,,
building,rhouse,Tree house,ranger,,1316,forest,needs,,,,,,2,5,,7,,,,,,,,,,,,,,,,,6,,,,,,,,,,,,,,,,,,,,,,,,,,,,,,
building,rresearch,Mediation,ranger,,1900,nearTown,general,,,,,,4,5,,,,,,2,1,,,,1,,,,,,,,,,,,,,,,,,,,,,,,,,,,,RESEARCH,,,,,,,,RESEARCH,
building,rtrain,Training,ranger,3,1871,nearTown,war,,,,,,6,2,,5,1,3,3,0,2,,,,,,,,,,,,,,,,,,,,,,,,,,,,,,,1,,,,,,,,,,,
building,rpalast5,Biggest palast,ranger,4,66,,general,,,,,10,27,,,,,,,,,,,,,,,,1,,,,,,,,,,,,,,,,,,,,1,,1,rworker-rexplorer,,,,,40,40,400,,1,,destroy
building,rpalast4,Bigger palast,ranger,3,34,,general,,,rpalast5,,8,9,,,,,,,,,,,,,,,,1,,,,,,,,,,,,,,,,,,,,1,,1,rworker-rexplorer,,,,,20,40,300,,1,,destroy
building,rpalast3,Big palast,ranger,2,34,,general,,,rpalast4,,6,3,4,,,,,,,,,,,,,,,1,,,,,,,,,,,,,,,,,,,,1,,1,rworker-rexplorer,,,,,20,30,200,,1,,destroy
building,rpalast2,Medium palast,ranger,1,959,,general,,,rpalast3,,4,1,4,,4,,,,,,,,,,,,,1,,,,,,,,,,,,,,,,,,,,1,,1,rworker-rexplorer,,,,,10,20,200,,1,,destroy
building,rpalast,Small palast,ranger,,959,,general,,,rpalast2,,2,0,,,,,,,,,,,,,,,,1,,,,5,20,10,5,,,,,,,,,,,,,1,,1,rworker-rexplorer,,,,,10,20,300,,,,destroy
building,ralchemy,Alchemy,ranger,4,1462,nearTown,prod,,,,,,4,6,,15,,6,4,2,2,,,,,,,,,,,,,,,,,,,1,,,,1,,,1,1,,plank-4,,,,,,,,,,,,,
building,rstreet,Way,ranger,2,1654,nearTown,explo,,,,,,4,1,,4,,,,,,,,,,,,,,,,,,,,,,,,,,,1,,1,,,,,,,,,,,,,,,,,,