id,name,icon,desc,length,produce,consume,ress,ress,finish,playerMulti,req,req
,,,,,food,wood,random,food,research,view,day,season
winter-100,Severe Winter,556,It is a very severe winter. You use 100% more wood.,3,,100,,,,,morning,winter
winter+50,Mild Winter,556,It is a mild winter. You use 50% fewer wood.,3,,-50,,,,,morning,winter
summer-50,Cold Summer,558,It's a harsh summer. You produce 50% fewer food.,3,-50,,,,,,morning,summer
summer+50,Perfect summer,558,It's the perfect summer. You produce 50% more food.,3,50,,,,,,morning,summer
eureka,Eureka,382,Eureka. Your researchers have made a discovery.,0,,,,,1,,,
ress,Ressources,210,You found some resources.,0,,,50,,,,,
darknight,Dark Night,545,It is a very dark night. Nobody sees anything.,1,,,,,,-9,night,
perfectview,Perfect view,548,It's a perfect view. Each unit sees 3 spaces more.,1,,,,,,3,,
ress+50,Found food,265,You found 50x food on the harvest.,0,,,,50,,,,autumn
ress-50,Rats plag,265,Rats eaten 50x food,0,,,,-50,,,,autumn