-- Merging decision tree log ---
manifest
ADDED from /Users/sven/OneDrive - OSZ IMT/_privat/9nations/generate/android/AndroidManifest.xml:2:1-26:12
	package
		ADDED from /Users/sven/OneDrive - OSZ IMT/_privat/9nations/generate/android/AndroidManifest.xml:3:5-29
		INJECTED from /Users/sven/OneDrive - OSZ IMT/_privat/9nations/generate/android/AndroidManifest.xml
		INJECTED from /Users/sven/OneDrive - OSZ IMT/_privat/9nations/generate/android/AndroidManifest.xml
	android:versionName
		INJECTED from /Users/sven/OneDrive - OSZ IMT/_privat/9nations/generate/android/AndroidManifest.xml
		INJECTED from /Users/sven/OneDrive - OSZ IMT/_privat/9nations/generate/android/AndroidManifest.xml
	xmlns:android
		ADDED from /Users/sven/OneDrive - OSZ IMT/_privat/9nations/generate/android/AndroidManifest.xml:2:11-69
	android:versionCode
		INJECTED from /Users/sven/OneDrive - OSZ IMT/_privat/9nations/generate/android/AndroidManifest.xml
		INJECTED from /Users/sven/OneDrive - OSZ IMT/_privat/9nations/generate/android/AndroidManifest.xml
uses-permission#android.permission.INTERNET
ADDED from /Users/sven/OneDrive - OSZ IMT/_privat/9nations/generate/android/AndroidManifest.xml:5:5-67
	android:name
		ADDED from /Users/sven/OneDrive - OSZ IMT/_privat/9nations/generate/android/AndroidManifest.xml:5:22-64
uses-permission#android.permission.ACCESS_NETWORK_STATE
ADDED from /Users/sven/OneDrive - OSZ IMT/_privat/9nations/generate/android/AndroidManifest.xml:6:5-79
	android:name
		ADDED from /Users/sven/OneDrive - OSZ IMT/_privat/9nations/generate/android/AndroidManifest.xml:6:22-76
application
ADDED from /Users/sven/OneDrive - OSZ IMT/_privat/9nations/generate/android/AndroidManifest.xml:8:5-24:19
MERGED from [de.tomgrill.gdxdialogs:gdx-dialogs-android:1.3.0] /Users/sven/OneDrive - OSZ IMT/_privat/9nations/generate/android/build/intermediates/exploded-aar/de.tomgrill.gdxdialogs/gdx-dialogs-android/1.3.0/AndroidManifest.xml:9:5-20
	android:label
		ADDED from /Users/sven/OneDrive - OSZ IMT/_privat/9nations/generate/android/AndroidManifest.xml:11:9-41
	android:allowBackup
		ADDED from /Users/sven/OneDrive - OSZ IMT/_privat/9nations/generate/android/AndroidManifest.xml:9:9-35
	android:icon
		ADDED from /Users/sven/OneDrive - OSZ IMT/_privat/9nations/generate/android/AndroidManifest.xml:10:9-45
	android:theme
		ADDED from /Users/sven/OneDrive - OSZ IMT/_privat/9nations/generate/android/AndroidManifest.xml:12:9-40
activity#de.ninenations.AndroidLauncher
ADDED from /Users/sven/OneDrive - OSZ IMT/_privat/9nations/generate/android/AndroidManifest.xml:13:9-22:20
	android:screenOrientation
		ADDED from /Users/sven/OneDrive - OSZ IMT/_privat/9nations/generate/android/AndroidManifest.xml:16:13-56
	android:label
		ADDED from /Users/sven/OneDrive - OSZ IMT/_privat/9nations/generate/android/AndroidManifest.xml:15:13-45
	android:configChanges
		ADDED from /Users/sven/OneDrive - OSZ IMT/_privat/9nations/generate/android/AndroidManifest.xml:17:13-94
	android:name
		ADDED from /Users/sven/OneDrive - OSZ IMT/_privat/9nations/generate/android/AndroidManifest.xml:14:13-58
intent-filter#android.intent.action.MAIN+android.intent.category.LAUNCHER
ADDED from /Users/sven/OneDrive - OSZ IMT/_privat/9nations/generate/android/AndroidManifest.xml:18:13-21:29
action#android.intent.action.MAIN
ADDED from /Users/sven/OneDrive - OSZ IMT/_privat/9nations/generate/android/AndroidManifest.xml:19:17-69
	android:name
		ADDED from /Users/sven/OneDrive - OSZ IMT/_privat/9nations/generate/android/AndroidManifest.xml:19:25-66
category#android.intent.category.LAUNCHER
ADDED from /Users/sven/OneDrive - OSZ IMT/_privat/9nations/generate/android/AndroidManifest.xml:20:17-77
	android:name
		ADDED from /Users/sven/OneDrive - OSZ IMT/_privat/9nations/generate/android/AndroidManifest.xml:20:27-74
uses-sdk
INJECTED from /Users/sven/OneDrive - OSZ IMT/_privat/9nations/generate/android/AndroidManifest.xml reason: use-sdk injection requested
MERGED from [de.tomgrill.gdxdialogs:gdx-dialogs-android:1.3.0] /Users/sven/OneDrive - OSZ IMT/_privat/9nations/generate/android/build/intermediates/exploded-aar/de.tomgrill.gdxdialogs/gdx-dialogs-android/1.3.0/AndroidManifest.xml:5:5-7:41
	android:targetSdkVersion
		INJECTED from /Users/sven/OneDrive - OSZ IMT/_privat/9nations/generate/android/AndroidManifest.xml
		INJECTED from /Users/sven/OneDrive - OSZ IMT/_privat/9nations/generate/android/AndroidManifest.xml
	android:minSdkVersion
		INJECTED from /Users/sven/OneDrive - OSZ IMT/_privat/9nations/generate/android/AndroidManifest.xml
		INJECTED from /Users/sven/OneDrive - OSZ IMT/_privat/9nations/generate/android/AndroidManifest.xml
